<svg width="7" height="12" viewBox="0 0 7 12" fill="none" xmlns="http://www.w3.org/2000/svg">
<path d="M6.5 6.53125C6.78125 6.25 6.78125 5.78125 6.5 5.46875L2.25 1.21875C1.9375 0.9375 1.46875 0.9375 1.1875 1.21875L0.46875 1.9375C0.1875 2.25 0.1875 2.71875 0.46875 3L3.5 6.03125L0.46875 9.03125C0.1875 9.3125 0.1875 9.78125 0.46875 10.0938L1.1875 10.7812C1.46875 11.0938 1.9375 11.0938 2.25 10.7812L6.5 6.53125Z" fill="#8A8A8A"/>
</svg>
