<svg width="8" height="13" viewBox="0 0 8 13" fill="none" xmlns="http://www.w3.org/2000/svg">
<path d="M7.19531 6.96484C7.44141 6.71875 7.44141 6.30859 7.19531 6.0625L1.89063 0.730469C1.61719 0.484375 1.20703 0.484375 0.960938 0.730469L0.332031 1.35938C0.0859376 1.60547 0.0859376 2.01563 0.332031 2.28906L4.54297 6.5L0.332031 10.7383C0.0859375 11.0117 0.0859375 11.4219 0.332031 11.668L0.960938 12.2969C1.20703 12.543 1.61719 12.543 1.89063 12.2969L7.19531 6.96484Z" fill="#42484E"/>
</svg>
