<svg width="23" height="19" viewBox="0 0 23 19" fill="none" xmlns="http://www.w3.org/2000/svg">
<path d="M22.1875 12.625H21.625V8.82812C21.625 8.40625 21.4141 7.94922 21.0977 7.63281L17.6172 4.15234C17.3008 3.83594 16.8438 3.625 16.4219 3.625H14.875V1.9375C14.875 1.02344 14.1016 0.25 13.1875 0.25H1.9375C0.988281 0.25 0.25 1.02344 0.25 1.9375V13.1875C0.25 14.1367 0.988281 14.875 1.9375 14.875H2.5C2.5 16.7383 4.01172 18.25 5.875 18.25C7.73828 18.25 9.25 16.7383 9.25 14.875H13.75C13.75 16.7383 15.2617 18.25 17.125 18.25C18.9883 18.25 20.5 16.7383 20.5 14.875H22.1875C22.4688 14.875 22.75 14.6289 22.75 14.3125V13.1875C22.75 12.9062 22.4688 12.625 22.1875 12.625ZM5.875 16.5625C4.92578 16.5625 4.1875 15.8242 4.1875 14.875C4.1875 13.9609 4.92578 13.1875 5.875 13.1875C6.78906 13.1875 7.5625 13.9609 7.5625 14.875C7.5625 15.8242 6.78906 16.5625 5.875 16.5625ZM17.125 16.5625C16.1758 16.5625 15.4375 15.8242 15.4375 14.875C15.4375 13.9609 16.1758 13.1875 17.125 13.1875C18.0391 13.1875 18.8125 13.9609 18.8125 14.875C18.8125 15.8242 18.0391 16.5625 17.125 16.5625ZM19.9375 9.25H14.875V5.3125H16.4219L19.9375 8.82812V9.25Z" fill="#C80935"/>
</svg>
