<svg width="8" viewBox="0 0 13 14" fill="none" xmlns="http://www.w3.org/2000/svg">
<path d="M8.98401 7.25L12.4996 3.73438C12.9567 3.3125 12.9567 2.60938 12.4996 2.1875L11.7262 1.41406C11.3043 0.957031 10.6012 0.957031 10.1793 1.41406L6.6637 4.92969L3.11292 1.41406C2.69105 0.957031 1.98792 0.957031 1.56605 1.41406L0.792609 2.1875C0.335577 2.60938 0.335577 3.3125 0.792609 3.73438L4.30823 7.25L0.792609 10.8008C0.335577 11.2227 0.335577 11.9258 0.792609 12.3477L1.56605 13.1211C1.98792 13.5781 2.69105 13.5781 3.11292 13.1211L6.6637 9.60547L10.1793 13.1211C10.6012 13.5781 11.3043 13.5781 11.7262 13.1211L12.4996 12.3477C12.9567 11.9258 12.9567 11.2227 12.4996 10.8008L8.98401 7.25Z" fill="white"/>
</svg>
